[
    {
        "id": "123",
        "name": "Finance Management",
        "price": 450,
        "publisher": {
            "companyName": "Taipei Company",
            "telephone": "0212345678"
        }
    },
    {
        "id": "456",
        "name": "Human Resource Management",
        "price": 400,
        "isbn": "9789861234567",
        "authors": ["Andy", "Bonnie"]
    }
]